^C:\USERS\LENOVO\DESKTOP\MATRIX-VECTOR\MATRIX-VECTOR\MAIN.CPP|C:\USERS\LENOVO\DESKTOP\MATRIX-VECTOR\MATRIX-VECTOR\MATRIX.CPP
C:\USERS\LENOVO\DESKTOP\MATRIX-VECTOR\MATRIX-VECTOR\X64\DEBUG\VC142.PDB
C:\USERS\LENOVO\DESKTOP\MATRIX-VECTOR\MATRIX-VECTOR\X64\DEBUG\VC142.IDB
C:\USERS\LENOVO\DESKTOP\MATRIX-VECTOR\MATRIX-VECTOR\X64\DEBUG\MATRIX.OBJ
C:\USERS\LENOVO\DESKTOP\MATRIX-VECTOR\MATRIX-VECTOR\X64\DEBUG\MAIN.OBJ
^C:\USERS\LENOVO\DESKTOP\MATRIX-VECTOR\MATRIX-VECTOR\MATRIX.CPP|C:\USERS\LENOVO\DESKTOP\MATRIX-VECTOR\MATRIX-VECTOR\VECTOR.CPP
C:\USERS\LENOVO\DESKTOP\MATRIX-VECTOR\MATRIX-VECTOR\X64\DEBUG\VC142.PDB
C:\USERS\LENOVO\DESKTOP\MATRIX-VECTOR\MATRIX-VECTOR\X64\DEBUG\VC142.IDB
C:\USERS\LENOVO\DESKTOP\MATRIX-VECTOR\MATRIX-VECTOR\X64\DEBUG\MATRIX.OBJ
^C:\USERS\LENOVO\DESKTOP\MATRIX-VECTOR\MATRIX-VECTOR\MAIN.CPP|C:\USERS\LENOVO\DESKTOP\MATRIX-VECTOR\MATRIX-VECTOR\MATRIX.CPP|C:\USERS\LENOVO\DESKTOP\MATRIX-VECTOR\MATRIX-VECTOR\VECTOR.CPP
C:\USERS\LENOVO\DESKTOP\MATRIX-VECTOR\MATRIX-VECTOR\X64\DEBUG\VC142.PDB
C:\USERS\LENOVO\DESKTOP\MATRIX-VECTOR\MATRIX-VECTOR\X64\DEBUG\VC142.IDB
C:\USERS\LENOVO\DESKTOP\MATRIX-VECTOR\MATRIX-VECTOR\X64\DEBUG\VECTOR.OBJ
C:\USERS\LENOVO\DESKTOP\MATRIX-VECTOR\MATRIX-VECTOR\X64\DEBUG\MATRIX.OBJ
C:\USERS\LENOVO\DESKTOP\MATRIX-VECTOR\MATRIX-VECTOR\X64\DEBUG\MAIN.OBJ
^C:\USERS\LENOVO\DESKTOP\MATRIX-VECTOR\MATRIX-VECTOR\MAIN.CPP|C:\USERS\LENOVO\DESKTOP\MATRIX-VECTOR\MATRIX-VECTOR\VECTOR.CPP
C:\USERS\LENOVO\DESKTOP\MATRIX-VECTOR\MATRIX-VECTOR\X64\DEBUG\VC142.PDB
C:\USERS\LENOVO\DESKTOP\MATRIX-VECTOR\MATRIX-VECTOR\X64\DEBUG\VC142.IDB
C:\USERS\LENOVO\DESKTOP\MATRIX-VECTOR\MATRIX-VECTOR\X64\DEBUG\VECTOR.OBJ
C:\USERS\LENOVO\DESKTOP\MATRIX-VECTOR\MATRIX-VECTOR\X64\DEBUG\MAIN.OBJ
^C:\USERS\LENOVO\DESKTOP\MATRIX-VECTOR\MATRIX-VECTOR\MATRIX.CPP
C:\USERS\LENOVO\DESKTOP\MATRIX-VECTOR\MATRIX-VECTOR\X64\DEBUG\VC142.PDB
C:\USERS\LENOVO\DESKTOP\MATRIX-VECTOR\MATRIX-VECTOR\X64\DEBUG\VC142.IDB
C:\USERS\LENOVO\DESKTOP\MATRIX-VECTOR\MATRIX-VECTOR\X64\DEBUG\MATRIX.OBJ
^C:\USERS\LENOVO\DESKTOP\MATRIX-VECTOR\MATRIX-VECTOR\VECTOR.CPP
C:\USERS\LENOVO\DESKTOP\MATRIX-VECTOR\MATRIX-VECTOR\X64\DEBUG\VC142.PDB
C:\USERS\LENOVO\DESKTOP\MATRIX-VECTOR\MATRIX-VECTOR\X64\DEBUG\VC142.IDB
C:\USERS\LENOVO\DESKTOP\MATRIX-VECTOR\MATRIX-VECTOR\X64\DEBUG\VECTOR.OBJ
^C:\USERS\LENOVO\DESKTOP\MATRIX-VECTOR\MATRIX-VECTOR\MAIN.CPP
C:\USERS\LENOVO\DESKTOP\MATRIX-VECTOR\MATRIX-VECTOR\X64\DEBUG\VC142.PDB
C:\USERS\LENOVO\DESKTOP\MATRIX-VECTOR\MATRIX-VECTOR\X64\DEBUG\VC142.IDB
C:\USERS\LENOVO\DESKTOP\MATRIX-VECTOR\MATRIX-VECTOR\X64\DEBUG\MAIN.OBJ
